{
  "name": "Admin Dashboard",
  "layouts": {
    "Admin Dashboard": "src/Layouts/Dashboard.svelte",
    "Login": "src/Layouts/Login.svelte",
    "Blank": "src/Layouts/Blank.svelte"
  },
  "components": {
    "Button": "src/Components/Button.svelte",
    "Card":  "src/Components/Card.svelte",
    "CardList":  "src/Components/CardList.svelte",
    "Input": "src/Components/Input.svelte",
    "InputForm": "src/Components/InputForm.svelte",
    "Kanban Board": "src/Components/Kanban Board.svelte",
    "MenuEntry": "src/Components/MenuEntry.svelte",
    "Sidebar": "src/Components/Sidebar.svelte"
  }
}
